{
  "type": "code",
  "modid": "webcartographercolorexporter",
  "name": "WebCartographerColorExporter",
  "authors": [
    "Th3Dilli"
  ],
  "description": "Extract the colors for every block to be used for WebCartographer export from .vcdbs",
  "version": "0.6.0",
  "side": "client",
  "dependencies": {
    "game": "1.20.0-rc.1"
  }
}